<?xml version="1.0" encoding="UTF-8"?>
<svg width="128px" height="86px" viewBox="0 0 128 86" version="1.1" xmlns="http://www.w3.org/2000/svg" xmlns:xlink="http://www.w3.org/1999/xlink">
    <!-- Generator: Sketch 51.2 (57519) - http://www.bohemiancoding.com/sketch -->
    <title>robo-head</title>
    <desc>Created with Sketch.</desc>
    <defs>
        <filter x="-5.8%" y="-6.3%" width="111.7%" height="117.7%" filterUnits="objectBoundingBox" id="filter-1">
            <feOffset dx="0" dy="2" in="SourceAlpha" result="shadowOffsetOuter1"></feOffset>
            <feGaussianBlur stdDeviation="2" in="shadowOffsetOuter1" result="shadowBlurOuter1"></feGaussianBlur>
            <feColorMatrix values="0 0 0 0 0   0 0 0 0 0   0 0 0 0 0  0 0 0 0.1 0" type="matrix" in="shadowBlurOuter1" result="shadowMatrixOuter1"></feColorMatrix>
            <feMerge>
                <feMergeNode in="shadowMatrixOuter1"></feMergeNode>
                <feMergeNode in="SourceGraphic"></feMergeNode>
            </feMerge>
        </filter>
    </defs>
    <g id="Berater-Mobile" stroke="none" stroke-width="1" fill="none" fill-rule="evenodd">
        <g id="Berater---Schritt-1-/-Mobile" transform="translate(-124.000000, -135.000000)">
            <g id="Group-3" transform="translate(18.000000, 100.000000)">
                <g id="Group" transform="translate(95.000000, 0.000000)">
                    <g id="robo-head" filter="url(#filter-1)" transform="translate(15.000000, 36.000000)">
                        <path d="M113,52.8137642 C113,71.5804607 105.575828,79 86.8022686,79 L32.1858248,79 C13.4122657,79 6,71.5804607 6,52.8137642 L6,27.1822677 C6,8.4155712 13.4122657,1 32.1858248,1 L86.8022686,1 C105.575828,1 113,8.4155712 113,27.1822677 L113,52.8137642" id="Fill-30" fill="#F6F6F4"></path>
                        <path d="M86.7744226,1 L81,1 C100.510124,1 108.225577,8.4155712 108.225577,27.1822677 L108.225577,52.8137642 C108.225577,71.5804607 100.510124,79 81,79 L86.7744226,79 C106.284547,79 114,71.5804607 114,52.8137642 L114,27.1822677 C114,8.4155712 106.284547,1 86.7744226,1" id="Fill-31" fill="#E5E5E0"></path>
                        <path d="M108,24 C114.947073,24.9376535 120,25.098281 120,38.5783356 C120,51.8036016 115.404751,51.851869 108.957912,53 L108,24" id="Fill-34" fill="#E5E5E0"></path>
                        <path d="M12,24 C5.0529274,24.9376535 0,25.098281 0,38.5783356 C0,51.8036016 4.59524925,51.851869 11.0420877,53 L12,24" id="Fill-35" fill="#F6F6F4"></path>
                        <path d="M34.4565603,60 C22.8543706,60 19,56.1503383 19,44.5695116 L19,33.4249161 C19,21.8456815 22.8543706,18 34.4565603,18 L84.5450348,18 C96.0642833,18 99.8596381,21.706374 99.998405,33.1677944 C99.998405,33.2529709 100,44.5695116 100,44.5695116 C100,56.1503383 96.149617,60 84.5450348,60 L34.4565603,60" id="Fill-40" fill="#3A4353"></path>
                        <path d="M72,40.4996173 C72,36.9072602 75.1409412,34 78.9942353,34 C82.8722353,34 86,36.9072602 86,40.4996173 C86,44.0973326 82.8722353,47 78.9942353,47 C75.1409412,47 72,44.0973326 72,40.4996173" id="Fill-41" fill="#4AA1CD"></path>
                        <path d="M34,40.9987648 C34,37.1308747 37.1310588,34 40.9967059,34 C44.8664706,34 48,37.1308747 48,40.9987648 C48,44.8740662 44.8664706,48 40.9967059,48 C37.1310588,48 34,44.8740662 34,40.9987648" id="Fill-42" fill="#4AA1CD"></path>
                        <path d="M36.3676365,41.6310591 C35.5735266,40.8362967 36.1085706,39.0177205 37.5614919,37.564243 C39.0174881,36.1084597 40.8370991,35.5734939 41.6312089,36.3674876 C42.427625,37.1637873 41.8910435,38.9831322 40.4365848,40.4381469 C38.9828948,41.8916243 37.1640526,42.4273587 36.3676365,41.6310591" id="Fill-43" fill="#E5E5E0"></path>
                        <path d="M40.3421513,47 C40.3125851,47 40.3071387,47 40.3009142,47 C40.2682358,46.9992219 40.2643455,46.9992219 40.2612332,46.9992219 C38.0678856,46.9478667 36.1694223,45.8616262 35,44.2182596 C36.0799455,44.9870315 37.3987551,45.4437816 38.827271,45.4437816 C42.483369,45.4437816 45.4438825,42.4900791 45.4438825,38.8282972 C45.4438825,37.3996888 44.987162,36.0807937 44.2176619,35 C45.8601439,36.1702762 46.9478701,38.0688627 46.9976658,40.2281157 C46.9984439,40.266243 46.9984439,40.2693555 46.9984439,40.2724679 C46.9992219,40.3082609 46.9992219,40.3137077 46.9992219,40.3199326 C47,40.3495007 47,40.3557256 47,40.3619505 C47,44.0462975 44.0394865,47 40.3833884,47 C40.3538222,47 40.3483758,47 40.3421513,47 Z" id="Fill-45" fill="#4981B6"></path>
                        <path d="M78.3771896,47 C76.1646555,47 74.2012456,45.9101532 73,44.2344845 C74.0797976,45.0010387 75.3962631,45.4559855 76.822499,45.4559855 C80.4807318,45.4559855 83.4429739,42.4988315 83.4429739,38.8327707 C83.4429739,37.4024929 82.9852083,36.0820566 82.2160374,35 C83.898404,36.1989094 84.998443,38.1620358 85,40.3869125 C84.998443,44.0475201 82.042429,47 78.3771896,47" id="Fill-47" fill="#4981B6"></path>
                        <path d="M73.367833,41.6310591 C72.5736871,40.8362967 73.1079866,39.0177205 74.5609738,37.564243 C76.017036,36.1084597 77.8374981,35.5734939 78.6308752,36.3674876 C79.4280962,37.1637873 78.8907216,38.9831322 77.4354282,40.4381469 C75.9816723,41.8916243 74.1635164,42.4273587 73.367833,41.6310591" id="Fill-48" fill="#E5E5E0"></path>
                    </g>
                </g>
            </g>
        </g>
    </g>
</svg>